# Blender v2.73 (sub 0) OBJ File: ''
# www.blender.org
mtllib stake.mtl
o Cube.001_Cube.002
v -0.225000 2.000000 -0.225000
v -0.225000 0.000000 -0.225000
v -0.225000 -0.000000 0.225000
v 0.225000 2.000000 -0.225000
v 0.225000 0.000000 -0.225000
v 0.225000 2.000000 0.225000
v 0.225000 -0.000000 0.225000
v -0.225000 2.000000 0.225000
vt 0.250000 0.999923
vt 0.250000 0.000078
vt 0.500000 0.000078
vt 0.000077 0.999922
vt 0.000078 0.000077
vt 0.750000 0.999923
vt 0.750000 0.000078
vt 1.000000 0.000078
vt 0.500000 0.999923
vt 1.000000 0.999922
vn -1.000000 0.000000 0.000000
vn 0.000000 0.000000 -1.000000
vn 1.000000 0.000000 0.000000
vn 0.000000 -0.000000 1.000000
usemtl Material.007
s off
f 1/1/1 2/2/1 3/3/1
f 4/4/2 5/5/2 2/2/2
f 6/6/3 7/7/3 5/8/3
f 8/9/4 3/3/4 7/7/4
f 8/9/1 1/1/1 3/3/1
f 1/1/2 4/4/2 2/2/2
f 4/10/3 6/6/3 5/8/3
f 6/6/4 8/9/4 7/7/4
