# Blender v2.73 (sub 0) OBJ File: ''
# www.blender.org
mtllib 14.mtl
o home.006_Plane.000
v 1.008285 -0.000000 1.000380
v 1.008285 0.000001 -0.999620
v 0.341589 0.000001 -0.999620
v -0.325028 1.000000 1.000381
v -0.325028 1.000001 -0.999619
v -0.991715 1.000001 -0.999619
v -0.325030 0.755556 1.000381
v -0.325030 0.755557 -0.999619
v -0.102809 0.755560 1.000381
v -0.102809 0.755561 -0.999619
v -0.102810 0.511116 1.000381
v -0.102810 0.511117 -0.999619
v 0.119389 0.511120 1.000381
v 0.119389 0.511121 -0.999619
v 0.119389 0.266676 1.000381
v 0.119389 0.266677 -0.999620
v 0.341589 0.266676 1.000381
v 0.341589 0.266677 -0.999620
v 0.341589 -0.000000 1.000380
v -0.101592 0.696391 1.000315
v -0.101592 0.696392 -1.001211
v -0.101592 0.756391 -1.001211
v -0.101592 0.756391 1.000315
v -0.161592 0.756391 -1.001211
v 0.122623 0.452872 1.000315
v 0.122623 0.452873 -1.001211
v 0.122623 0.512873 -1.001211
v 0.122623 0.512872 1.000315
v 0.062623 0.512873 -1.001211
v 0.343869 0.207869 1.000315
v 0.343869 0.207870 -1.001211
v 0.343869 0.267869 -1.001211
v 0.343869 0.267868 1.000315
v 0.283868 0.267869 -1.001211
v -0.323564 0.941607 1.000315
v -0.323564 0.941608 -1.001211
v -0.323564 1.001608 -1.001211
v -0.323564 1.001607 1.000315
v -0.383564 1.001608 -1.001211
v -0.991715 1.000000 1.000381
v -0.161592 0.756391 1.000315
v 0.062623 0.512872 1.000315
v 0.283868 0.267868 1.000315
v -0.383564 1.001607 1.000315
v -0.991715 0.000001 -0.999620
v 1.008285 0.000001 -0.999620
v 1.008285 2.000001 -0.999619
v 1.008285 1.999999 1.000381
v 1.008285 -0.000000 1.000380
v -0.991715 -0.000000 1.000380
v -0.991715 2.000001 -0.999619
v -0.991715 2.000000 1.000381
v 0.546961 2.000000 1.000381
v -0.530390 2.000000 1.000381
v 0.341618 -0.000000 1.000380
v -0.325048 -0.000000 1.000380
v 0.546960 2.000001 -0.999619
v -0.530391 2.000001 -0.999619
v -0.325048 0.000001 -0.999620
v 0.341618 0.000001 -0.999620
vt 0.000000 1.000000
vt 0.000000 0.500000
vt 0.166667 0.500000
vt 0.500000 1.000000
vt 0.333333 1.000000
vt 0.333333 0.500000
vt 0.166667 1.000000
vt 0.115656 0.499976
vt 0.115656 0.999929
vt 0.384344 0.999929
vt 0.000047 0.999929
vt 0.384344 0.499976
vt 0.499953 0.999929
vt 0.500000 0.500000
vt 0.055556 0.000000
vt 0.055556 0.500000
vt 0.111111 0.000000
vt 0.111111 0.500000
vt 0.166667 0.000000
vt 0.222222 0.000000
vt 0.222222 0.500000
vt 0.277778 0.000000
vt 0.277778 0.500000
vt 0.333333 0.000000
vt 0.388889 0.000000
vt 0.388889 0.500000
vt 0.444444 0.000000
vt 0.444444 0.500000
vt 0.897346 0.500067
vt 0.897346 0.000153
vt 0.924560 0.000196
vt 0.924560 0.500110
vt 0.971299 0.000196
vt 0.000000 0.000000
vt 0.971299 0.500110
vt 0.500000 0.000000
vn 0.000000 -0.000000 1.000000
vn 0.000000 0.000000 -1.000000
vn -0.000000 -1.000000 -0.000000
vn 0.707100 0.707100 0.000000
vn 0.000000 1.000000 0.000000
vn 1.000000 0.000000 0.000000
usemtl Material.051
s 1
f 46/1/1 47/2/1 57/3/1
f 49/4/2 55/5/2 53/6/2
f 55/5/2 56/7/2 54/3/2
f 54/3/2 56/7/2 50/1/2
f 45/4/1 59/5/1 58/6/1
f 60/7/1 57/3/1 58/6/1
f 54/8/3 58/9/3 57/10/3
f 52/2/3 51/11/3 58/9/3
f 53/12/3 57/10/3 47/13/3
f 60/7/1 46/1/1 57/3/1
f 48/14/2 49/4/2 53/6/2
f 53/6/2 55/5/2 54/3/2
f 52/2/2 54/3/2 50/1/2
f 51/14/1 45/4/1 58/6/1
f 59/5/1 60/7/1 58/6/1
f 53/12/3 54/8/3 57/10/3
f 54/8/3 52/2/3 58/9/3
f 48/14/3 53/12/3 47/13/3
usemtl Material.050
f 4/15/4 5/16/4 6/2/5
f 7/17/4 8/18/4 5/16/4
f 9/19/4 10/3/4 8/18/4
f 11/20/4 12/21/4 10/3/4
f 13/22/4 14/23/4 12/21/4
f 15/24/4 16/6/4 14/23/4
f 17/25/4 18/26/4 16/6/4
f 19/27/4 3/28/4 18/26/4
f 20/29/6 21/30/6 22/31/4
f 23/32/4 22/31/4 24/33/5
f 25/29/6 26/30/6 27/31/4
f 28/32/4 27/31/4 29/33/5
f 30/29/6 31/30/6 32/31/4
f 33/32/4 32/31/4 34/33/5
f 35/29/6 36/30/6 37/31/4
f 38/32/4 37/31/4 39/33/5
f 40/34/5 4/15/4 6/2/5
f 4/15/4 7/17/4 5/16/4
f 7/17/4 9/19/4 8/18/4
f 9/19/4 11/20/4 10/3/4
f 11/20/4 13/22/4 12/21/4
f 13/22/4 15/24/4 14/23/4
f 15/24/4 17/25/4 16/6/4
f 17/25/4 19/27/4 18/26/4
f 23/32/4 20/29/6 22/31/4
f 41/35/5 23/32/4 24/33/5
f 28/32/4 25/29/6 27/31/4
f 42/35/5 28/32/4 29/33/5
f 33/32/4 30/29/6 32/31/4
f 43/35/5 33/32/4 34/33/5
f 38/32/4 35/29/6 37/31/4
f 44/35/5 38/32/4 39/33/5
f 2/14/5 3/28/4 19/27/4
f 1/36/5 2/14/5 19/27/4
