# Blender v2.73 (sub 0) OBJ File: ''
# www.blender.org
mtllib 20.stageSet.mtl
o Plane_Plane.000
v -0.324242 1.000000 0.484905
v -0.190909 1.000000 0.484905
v -0.190909 0.000001 0.484905
v 0.342424 0.000001 0.484905
v 0.209092 0.000001 0.484905
v 0.342424 1.000000 0.484905
v 0.209092 1.000000 0.484905
v -0.324242 0.000001 0.484905
v -0.990909 1.000000 0.419861
v -0.324242 1.000000 0.419861
v 0.342424 1.000000 0.419861
v 1.009084 1.000000 0.419862
v 0.342424 0.000001 0.419861
v -0.990909 0.000001 0.419861
v 1.009091 0.000001 0.999862
v 1.009084 0.000001 0.419861
v 1.009091 1.000000 0.999862
v -0.324242 0.000001 0.419861
v 0.342424 0.000001 0.990536
v 0.342424 1.000000 0.990536
v -0.324242 1.000000 0.990536
v -0.324242 0.000001 0.990536
vt 0.000123 0.490558
vt 0.474863 0.490558
vt 0.474863 0.475118
vt 0.000123 0.301183
vt 0.000123 0.380308
vt 0.474873 0.380308
vt 0.000123 0.459433
vt 0.000123 0.474873
vt 0.474873 0.474873
vt 0.474873 0.459433
vt 0.000123 0.648808
vt 0.474863 0.648808
vt 0.000123 0.475118
vt 0.474873 0.301183
vt 0.474863 0.300937
vt 0.474863 0.269287
vt 0.000123 0.269287
vt 0.506769 0.000123
vt 0.475118 0.000123
vt 0.475118 0.474873
vt 0.000123 0.300938
vt 0.506769 0.474863
vt 0.000123 0.999877
vt 0.474863 0.999877
vt 0.474863 0.903591
vt 0.000123 0.649054
vt 0.000123 0.745341
vt 0.474863 0.745341
vt 0.000123 0.903591
vt 0.474863 0.649054
vn 0.707100 0.000000 -0.707100
vn 1.000000 0.000000 0.000000
vn -0.707100 0.000000 -0.707100
vn -1.000000 0.000000 0.000000
vn 0.000000 0.000000 -1.000000
usemtl Material.055
s 1
f 18/1/1 10/2/1 1/3/2
f 15/4/2 16/5/1 12/6/1
f 13/7/3 4/8/4 6/9/4
f 13/7/3 11/10/3 12/6/1
f 14/11/5 9/12/5 10/2/1
f 8/13/2 18/1/1 1/3/2
f 17/14/2 15/4/2 12/6/1
f 11/10/3 13/7/3 6/9/4
f 16/5/1 13/7/3 12/6/1
f 18/1/1 14/11/5 10/2/1
usemtl Material.054
f 1/15/5 2/16/5 3/17/5
f 4/18/5 5/19/5 7/20/5
f 8/21/5 1/15/5 3/17/5
f 6/22/5 4/18/5 7/20/5
usemtl Material.056
f 8/23/2 1/24/2 21/25/1
f 4/26/4 19/27/3 20/28/3
f 22/29/1 21/25/1 20/28/3
f 22/29/1 8/23/2 21/25/1
f 6/30/4 4/26/4 20/28/3
f 19/27/3 22/29/1 20/28/3
