# Blender v2.73 (sub 0) OBJ File: ''
# www.blender.org
mtllib 23.mtl
o corridor.003_Plane.000
v -1.000000 1.000000 1.000000
v -1.000000 -0.000000 1.000000
v -1.000000 0.000000 -1.000000
v -1.000000 1.000000 -1.000000
v 1.000000 -0.000000 1.000000
v 1.000000 0.000000 -1.000000
v -1.000000 0.000000 -1.000000
v -1.000000 -0.000000 1.000000
v 1.000000 1.000000 1.000000
v 1.000000 1.000000 -1.000000
v -1.000000 1.000000 -1.000000
v -1.000000 1.000000 1.000000
vt 0.500000 0.000000
vt 0.500000 0.500000
vt 0.000000 0.500000
vt 0.000000 0.000000
vt 1.000000 0.500000
vt 0.500000 1.000000
vt 1.000000 1.000000
vn 0.000000 1.000000 0.000000
vn 0.000000 -1.000000 -0.000000
vn 1.000000 -0.000000 0.000000
usemtl Material.062
s 1
f 5/1/1 6/2/1 7/3/1
f 8/4/1 5/1/1 7/3/1
f 9/5/2 11/6/2 10/7/2
f 12/2/2 11/6/2 9/5/2
usemtl Material.061
f 1/5/3 2/7/3 3/6/3
f 4/2/3 1/5/3 3/6/3
