# Blender MTL File: 'None'
# Material Count: 2

newmtl Material.073
Ns 96.078431
Ka 0.000000 0.000000 0.000000
Kd 0.640000 0.640000 0.640000
Ks 0.500000 0.500000 0.500000
Ni 1.000000
d 1.000000
illum 2
map_Kd /Volumes/Data/nfs/zfs-student-3/users/2013/ggobin/42run/assets/models/room/building_tex_set.png

newmtl Material.074
Ns 96.078431
Ka 0.000000 0.000000 0.000000
Kd 0.640000 0.640000 0.640000
Ks 0.500000 0.500000 0.500000
Ni 1.000000
d 1.000000
illum 2
map_Kd /Volumes/Data/nfs/zfs-student-3/users/2013/ggobin/42run/assets/models/room/building_tex_set.png
